2105а|Потолок|2014-5-17 09:31:07|21.31
2105а|Роб.зона|2014-5-17 09:31:07|20.44
2105а|Пол|2014-5-17 09:31:07|20.13
2105б|Потолок|2014-5-17 09:31:07|23.31
2105б|Роб.зона|2014-5-17 09:31:07|19.44
2105б|Пол|2014-5-17 09:31:07|18.44
2105п|Преподавательская|2014-5-17 09:31:07|17.44
2105п|Преподавательская|2014-5-17 09:31:07|17.50
2105а|Потолок|2014-5-17 10:31:07|17.44
2105а|Роб.зона|2014-5-17 10:31:07|17.44
2105а|Пол|2014-5-17 10:31:07|17.44
2105б|Потолок|2014-5-17 10:31:07|17.44
2105б|Роб.зона|2014-5-17 10:31:07|17.38
2105б|Пол|2014-5-17 10:31:07|17.31
2105п|Преподавательская|2014-5-17 10:31:07|17.31
2105п|Преподавательская|2014-5-17 10:31:07|17.31
2105а|Потолок|2014-5-17 11:31:07|17.25
2105а|Роб.зона|2014-5-17 11:31:07|17.19
2105а|Пол|2014-5-17 11:31:07|17.25
2105б|Потолок|2014-5-17 11:31:07|17.31
2105б|Роб.зона|2014-5-17 11:31:07|17.25
2105б|Пол|2014-5-17 11:31:07|17.25
2105п|преподавательская|2014-5-17 11:31:07|17.19
2105п|преподавательская|2014-5-17 11:31:07|17.19
2105а|Потолок|2014-5-17 12:31:07|17.31
2105а|Роб.зона|2014-5-17 12:31:07|17.00
2105а|Пол|2014-5-17 12:31:07|17.00
2105б|Потолок|2014-5-17 12:31:07|17.00
2105б|Роб.зона|2014-5-17 12:31:07|17.06
2105б|Пол|2014-5-17 12:31:07|17.06
2105п|Преподавательская|2014-5-17 12:31:07|17.13
2105п|Преподавательская|2014-5-17 12:31:07|17.13
2105а|Потолок|2014-5-17 13:31:07|17.19
2105а|Роб.зона|2014-5-17 13:31:07|17.38
2105а|Пол|2014-5-17 13:31:07|17.31
2105б|Потолок|2014-5-17 13:31:07|17.31
2105б|Роб.зона|2014-5-17 13:31:07|17.31
2105б|Пол|2014-5-17 13:31:07|17.31
2105п|Преподавательская|2014-5-17 13:31:07|17.25
2105п|Преподавательская|2014-5-17 13:31:07|17.25
2105а|Потолок|2014-5-17 14:31:07|17.25
2105а|Роб.зона|2014-5-17 14:31:07|17.25
2105а|Пол|2014-5-17 14:31:07|17.25
2105б|Потолок|2014-5-17 14:31:07|17.25
2105б|Роб.зона|2014-5-17 14:31:07|17.19
2105б|Пол|2014-5-17 14:31:07|17.19
2105п|Преподавательская|2014-5-17 14:31:07|17.19
2105п|Преподавательская|2014-5-17 14:31:07|17.13
2105а|Потолок|2014-5-17 15:31:07|17.13
2105а|Роб.зона|2014-5-17 15:31:07|17.13
2105а|Пол|2014-5-17 15:31:07|17.13
2105б|Потолок|2014-5-17 15:31:07|17.13
2105б|Роб.зона|2014-5-17 15:31:07|17.13
2105б|Пол|2014-5-17 15:31:07|17.13
2105п|Преподавательская|2014-5-17 15:31:07|17.13
2105п|Преподавательская|2014-5-17 15:31:07|17.19
2105а|Потолок|2014-5-17 16:31:07|17.19
2105а|Роб.зона|2014-5-17 16:31:07|17.13
2105а|Пол|2014-5-17 16:31:07|17.19
2105б|Потолок|2014-5-17 16:31:07|17.19
2105б|Роб.зона|2014-5-17 16:31:07|17.19
2105б|Пол|2014-5-17 16:31:07|17.19
2105п|Преподавательская|2014-5-17 16:31:07|17.19
2105п|Преподавательская|2014-5-17 16:31:07|17.19
2105а|Потолок|2014-5-17 17:31:07|17.19
2105а|Роб.зона|2014-5-17 17:31:07|17.19
2105а|Пол|2014-5-17 17:31:07|17.19
2105б|Потолок|2014-5-17 17:31:07|17.19
2105б|Роб.зона|2014-5-17 17:31:07|17.19
2105б|Пол|2014-5-17 17:31:07|17.19
2105п|Преподавательская|2014-5-17 17:31:07|17.19
2105п|Преподавательская|2014-5-17 17:31:07|17.19
2105а|Потолок|2014-5-17 18:31:07|17.19
2105а|Роб.зона|2014-5-17 18:31:07|17.13
2105а|Пол|2014-5-17 18:31:07|17.13
2105б|Потолок|2014-5-17 18:31:07|17.19
2105б|Роб.зона|2014-5-17 18:31:07|17.19
2105б|Пол|2014-5-17 18:31:07|17.19
2105п|Преподавательская|2014-5-17 18:31:07|17.13
2105п|Преподавательская|2014-5-17 18:31:07|17.19
2105а|Потолок|2014-5-17 19:31:07|17.19
2105а|Роб.зона|2014-5-17 19:31:07|17.19
2105а|Пол|2014-5-17 19:31:07|17.25
2105б|Потолок|2014-5-18 19:31:07|17.25
2105б|Роб.зона|2014-5-18 19:31:07|17.19
2105б|Пол|2014-5-18 19:31:07|17.19
2105п|Преподавательская|2014-5-18 19:31:07|17.19
2105п|Преподавательская|2014-5-18 19:31:07|17.50
2105а|Потолок|2014-5-18 20:31:07|18.06
2105а|Роб.зона|2014-5-18 20:31:07|18.06
2105а|Пол|2014-5-18 20:31:07|17.94
2105б|Потолок|2014-5-18 20:31:07|18.00
2105б|Роб.зона|2014-5-18 20:31:07|18.00
2105б|Пол|2014-5-18 20:31:07|18.00
2105п|Преподавательская|2014-5-18 20:31:07|18.00
2105п|Преподавательская|2014-5-18 20:31:07|17.94
2105а|Потолок|2014-5-18 21:31:07|18.00
2105а|Роб.зона|2014-5-18 21:31:07|18.06
2105а|Пол|2014-5-18 21:31:07|18.00
2105б|Потолок|2014-5-18 21:31:07|18.06
2105б|Роб.зона|2014-5-18 21:31:07|18.06
2105б|Пол|2014-5-18 21:31:07|18.06
2105п|Преподавательская|2014-5-18 21:31:07|18.06
2105п|Преподавательская|2014-5-18 21:31:07|18.00
2105а|Потолок|2014-5-18 22:31:07|18.00
2105а|Роб.зона|2014-5-18 22:31:07|18.00
2105а|Пол|2014-5-18 22:31:07|17.94
2105б|Потолок|2014-5-18 22:31:07|18.00
2105б|Роб.зона|2014-5-18 22:31:07|18.00
2105б|Пол|2014-5-18 22:31:07|18.00
2105п|Преподавательская|2014-5-18 22:31:07|18.06
2105п|Преподавательская|2014-5-18 22:31:07|18.13
2105а|Потолок|2014-5-18 23:31:07|18.19
2105а|Роб.зона|2014-5-18 23:31:07|18.19
2105а|Пол|2014-5-18 23:31:07|18.19
2105б|Потолок|2014-5-18 23:31:07|18.19
2105б|Роб.зона|2014-5-18 23:31:07|17.38
2105б|Пол|2014-5-18 23:31:07|17.38
2105п|Преподавательская|2014-5-18 23:31:07|17.38
2105п|Преподавательская|2014-5-18 23:31:07|17.38
2105а|Потолок|2014-5-18 24:31:07|17.38
2105а|Роб.зона|2014-5-18 24:31:07|17.38
2105а|Пол|2014-5-18 24:31:07|17.38
2105б|Потолок|2014-5-18 24:31:07|17.38
2105б|Роб.зона|2014-5-18 24:31:07|17.38
2105б|Пол|2014-5-18 24:31:07|17.38
2105п|Преподавательская|2014-5-18 24:31:07|17.38
2105п|Преподавательская|2014-5-18 24:31:07|17.38
2105а|Потолок|2014-5-18 01:31:07|17.38
2105а|Роб.зона|2014-5-18 01:31:07|17.38
2105а|Пол|2014-5-18 01:31:07|17.38
2105б|Потолок|2014-5-18 01:31:07|17.38
2105б|Роб.зона|2014-5-18 01:31:07|17.38
2105б|Пол|2014-5-18 01:31:07|17.38
2105п|Преподавательская|2014-5-18 01:31:07|17.38
2105п|Преподавательская|2014-5-18 01:31:07|17.38
2105а|Потолок|2014-5-18 02:31:07|16.69
2105а|Роб.зона|2014-5-18 02:31:07|16.69
2105а|Пол|2014-5-18 02:31:07|16.69
2105б|Потолок|2014-5-18 02:31:07|16.75
2105б|Роб.зона|2014-5-18 02:31:07|16.75
2105б|Пол|2014-5-18 02:31:07|16.75
2105п|Преподавательская|2014-5-18 02:31:07|16.75
2105п|Преподавательская|2014-5-18 02:31:07|16.75
2105а|Потолок|2014-5-18 03:31:07|16.75
2105а|Роб.зона|2014-5-18 03:31:07|16.75
2105а|Пол|2014-5-18 03:31:07|16.75
2105б|Потолок|2014-5-18 03:31:07|16.75
2105б|Роб.зона|2014-5-18 03:31:07|16.75
2105б|Пол|2014-5-18 03:31:07|16.69
2105п|Преподавательская|2014-5-18 03:31:07|16.75
2105п|Преподавательская|2014-5-18 03:31:07|16.69
2105а|Потолок|2014-5-18 04:31:07|16.69
2105а|Роб.зона|2014-5-18 04:31:07|16.63
2105а|Пол|2014-5-18 04:31:07|16.63
2105б|Потолок|2014-5-18 04:31:07|16.63
2105б|Роб.зона|2014-5-18 04:31:07|16.44
2105б|Пол|2014-5-18 04:31:07|16.31
2105п|Преподавательская|2014-5-18 04:31:07|17.00
2105п|Преподавательская|2014-5-18 04:31:07|16.75
2105а|Потолок|2014-5-18 05:31:07|16.88
2105а|Роб.зона|2014-5-18 05:31:07|16.88
2105а|Пол|2014-5-18 05:31:07|17.00
2105б|Потолок|2014-5-18 05:31:07|16.94
2105б|Роб.зона|2014-5-18 05:31:07|16.94
2105б|Пол|2014-5-18 05:31:07|16.88
2105п|Преподавательская|2014-5-18 05:31:07|16.88
2105п|Преподавательская|2014-5-18 05:31:07|16.81
2105а|Потолок|2014-5-18 06:31:07|16.81
2105а|Роб.зона|2014-5-18 06:31:07|16.81
2105а|Пол|2014-5-18 06:31:07|16.88
2105б|Потолок|2014-5-18 06:31:07|16.94
2105б|Роб.зона|2014-5-18 06:31:07|17.00
2105б|Пол|2014-5-18 06:31:07|16.94
2105п|Преподавательская|2014-5-18 06:31:07|16.94
2105п|Преподавательская|2014-5-18 06:31:07|17.00
2105а|Потолок|2014-5-18 07:31:07|17.00
2105а|Роб.зона|2014-5-18 07:31:07|17.00
2105а|Пол|2014-5-18 07:31:07|17.00
2105б|Потолок|2014-5-18 07:31:07|16.94
2105б|Роб.зона|2014-5-18 07:31:07|17.00
2105б|Пол|2014-5-18 07:31:07|17.00
2105п|Преподавательская|2014-5-18 07:31:07|17.00
2105п|Преподавательская|2014-5-18 07:31:07|17.06
2105а|Потолок|2014-5-18 08:31:07|17.06
2105а|Роб.зона|2014-5-18 08:31:07|17.13
2105а|Пол|2014-5-18 08:31:07|17.13
2105б|Потолок|2014-5-18 08:31:07|17.13
2105б|Роб.зона|2014-5-18 08:31:07|17.00
2105б|Пол|2014-5-18 08:31:07|17.00
2105п|Преподавательская|2014-5-18 08:31:07|17.06
2105п|Преподавательская|2014-5-18 08:31:07|16.81
2105а|Потолок|2014-5-18 09:31:07|16.75
2105а|Роб.зона|2014-5-18 09:31:07|16.75
2105а|Пол|2014-5-18 09:31:07|16.75
2105б|Потолок|2014-5-18 09:31:07|16.75
2105б|Роб.зона|2014-5-18 09:31:07|16.75
2105б|Пол|2014-5-18 09:31:07|16.75
2105п|Преподавательская|2014-5-18 09:31:07|16.75
2105п|Преподавательская|2014-5-18 09:31:07|16.75
2105а|Потолок|2014-5-18 10:31:07|16.81
2105а|Роб.зона|2014-5-18 10:31:07|16.81
2105а|Пол|2014-5-18 10:31:07|16.81
2105б|Потолок|2014-5-19 10:31:07|16.81
2105б|Роб.зона|2014-5-19 10:31:07|16.81
2105б|Пол|2014-5-19 10:31:07|16.81
2105п|Преподавательская|2014-5-19 10:31:07|16.81
2105п|Преподавательская|2014-5-19 10:31:07|16.88
2105а|Потолок|2014-5-19 11:31:07|16.88
2105а|Роб.зона|2014-5-19 11:31:07|16.88
2105а|Пол|2014-5-19 11:31:07|16.88
2105б|Потолок|2014-5-19 11:31:07|17.00
2105б|Роб.зона|2014-5-19 11:31:07|17.06
2105б|Пол|2014-5-19 11:31:07|17.19
2105п|Преподавательская|2014-5-19 11:31:07|17.06
2105п|Преподавательская|2014-5-19 11:31:07|16.88
2105а|Потолок|2014-5-19 12:31:07|16.88
2105а|Роб.зона|2014-5-19 12:31:07|16.94
2105а|Пол|2014-5-19 12:31:07|16.94
2105б|Потолок|2014-5-19 12:31:07|16.94
2105б|Роб.зона|2014-5-19 12:31:07|16.94
2105б|Пол|2014-5-19 12:31:07|16.94
2105п|Преподавательская|2014-5-19 12:31:07|16.88
2105п|Преподавательская|2014-5-19 12:31:07|16.75
2105а|Потолок|2014-5-19 13:31:07|16.69
2105а|Роб.зона|2014-5-19 13:31:07|16.69
2105а|Пол|2014-5-19 13:31:07|16.63
2105б|Потолок|2014-5-19 13:31:07|16.63
2105б|Роб.зона|2014-5-19 13:31:07|16.94
2105б|Пол|2014-5-19 13:31:07|16.94
2105п|Преподавательская|2014-5-19 13:31:07|16.88
2105п|Преподавательская|2014-5-19 13:31:07|16.75
2105а|Потолок|2014-5-19 14:31:07|16.69
2105а|Роб.зона|2014-5-19 14:31:07|16.69
2105а|Пол|2014-5-19 14:31:07|16.63
2105б|Потолок|2014-5-19 14:31:07|16.63
2105б|Роб.зона|2014-5-19 14:31:07|16.94
2105б|Пол|2014-5-19 14:31:07|16.94
2105п|Преподавательская|2014-5-19 14:31:07|16.88
2105п|Преподавательская|2014-5-19 14:31:07|16.75
2105а|Потолок|2014-5-19 15:31:07|21.69
2105а|Роб.зона|2014-5-19 15:31:07|18.69
2105а|Пол|2014-5-19 15:31:07|16.63
2105б|Потолок|2014-5-19 15:31:07|19.63
2105б|Роб.зона|2014-5-19 15:31:07|19.94
2105б|Пол|2014-5-19 15:31:07|17.94
2105п|Преподавательская|2014-5-19 15:31:07|24.88
2105п|Преподавательская|2014-5-19 15:31:07|23.75

